

   [
    {"id":"1", "name": "Iphone", "price": "500", "art": "234234", "color":  "blue", "img":  "API/img/iphone12.png"},
    {"id": "2", "name": "Ipod", "price": "400", "art": "534345", "color":  "green", "img":  "API/img/ipod.jpg"},
    {"id": "3", "name":  "Ipad", "price": "300", "art": "234214", "color":  "white", "img":  "API/img/ipad.jpg"},
    {"id": "4", "name":  "Samsung", "price": "200", "art": "5345345", "color":  "black", "img":  "API/img/sams.jpg"},
    {"id": "5", "name":  "Xiaomi", "price": "400", "art": "124234", "color":  "yellow", "img":  "API/img/xioami.jpg"},
    {"id": "6", "name":  "Acer", "price": "150", "art": "64564", "color":  "purple", "img":  "API/img/acer.jpg"},
    {"id": "7", "name":  "Nomi", "price": "300", "art": "23423", "color":  "red", "img":  "API/img/images.jpg"},
    {"id": "8", "name":  "Oppo", "price": "650", "art": "6452", "color":  "grey", "img":  "API/img/oppo.jpg"},
    {"id": "9", "name":  "Huawei", "price": "450", "art": "2342", "color":  "space-grey", "img":  "API/img/huawei.jpg"},
    {"id": "10", "name":  "HP", "price": "700", "art": "87654", "color":  "super-grey", "img":  "API/img/hp.jpg"}

]
